%YAML 1.1
%TAG !u! tag:unity3d.com,2011:
--- !u!114 &11400000
MonoBehaviour:
  m_ObjectHideFlags: 0
  m_CorrespondingSourceObject: {fileID: 0}
  m_PrefabInstance: {fileID: 0}
  m_PrefabAsset: {fileID: 0}
  m_GameObject: {fileID: 0}
  m_Enabled: 1
  m_EditorHideFlags: 0
  m_Script: {fileID: 11500000, guid: e022274d3d31e0d44a8191cf2c4e28a3, type: 3}
  m_Name: Bathroom
  m_EditorClassIdentifier: 
<<<<<<< HEAD
  LocationName: 
  storyText: "\u0412\u044B \u0432\u044B\u0448\u043B\u0438 \u043D\u0430 \u0443\u043B\u0438\u0446\u0443\n\n1.
    \u0412 \u0431\u043E\u043B\u044C\u0448\u0443\u044E \u043A\u043E\u043C\u043D\u0430\u0442\u0443\n2.
    \u0412\u0435\u0440\u043D\u0443\u0442\u044C\u0441\u044F \u0432 \u043A\u043E\u0440\u0438\u0434\u043E\u0440"
=======
  LocationName: "\u0412\u0430\u043D\u043D\u0430\u044F"
  storyText: "\u0425\u043E\u0434\u0438\u0442\u044C \u0432 \u043B\u043E\u0442\u043E\u043A
    - \u0434\u043E\u0432\u043E\u043B\u044C\u043D\u043E \u0441\u0442\u0440\u0430\u043D\u043D\u043E,
    \u0430 \u0443\u043D\u0438\u0442\u0430\u0437 \u0442\u0435\u043F\u0435\u0440\u044C
    \u0434\u043B\u044F \u043C\u0435\u043D\u044F \u0441\u043B\u0438\u0448\u043A\u043E\u043C
    \u0432\u044B\u0441\u043E\u043A...\n\n1. \u041D\u0430 \u043A\u0443\u0445\u043D\u044E\n2.
    \u0412\u0435\u0440\u043D\u0443\u0442\u044C\u0441\u044F \u0432 \u043A\u043E\u0440\u0438\u0434\u043E\u0440\n3.
    \u041F\u043E\u043F\u044B\u0442\u0430\u0442\u044C\u0441\u044F \u0441\u0445\u043E\u0434\u0438\u0442\u044C
    \u0432 \u0443\u043D\u0438\u0442\u0430\u0437"
>>>>>>> 750b46a15ed842fa08d9cc4ae24ae90fd7559d03
  nextStates:
  - {fileID: 11400000, guid: 1bf6bd9353acc3141af4c687d933242b, type: 2}
  - {fileID: 11400000, guid: eca4fcdcadacc2c4789ce2e44b44fac6, type: 2}
  - {fileID: 11400000, guid: ae29f1641e72d78468e0415b474a91f1, type: 2}
