%YAML 1.1
%TAG !u! tag:unity3d.com,2011:
--- !u!114 &11400000
MonoBehaviour:
  m_ObjectHideFlags: 0
  m_CorrespondingSourceObject: {fileID: 0}
  m_PrefabInstance: {fileID: 0}
  m_PrefabAsset: {fileID: 0}
  m_GameObject: {fileID: 0}
  m_Enabled: 1
  m_EditorHideFlags: 0
  m_Script: {fileID: 11500000, guid: e022274d3d31e0d44a8191cf2c4e28a3, type: 3}
  m_Name: KitchenRoom
  m_EditorClassIdentifier: 
<<<<<<< HEAD
  LocationName: 
  storyText: "\u0411\u043E\u043B\u044C\u0448\u0430\u044F \u043A\u043E\u043C\u043D\u0430\u0442\u0430\n\n1.
    \u0412\u0435\u0440\u043D\u0443\u0442\u044C\u0441\u044F \u0432 \u043A\u043E\u0440\u0438\u0434\u043E\u0440"
=======
  LocationName: "\u041A\u0443\u0445\u043D\u044F"
  storyText: "\u041D\u0430 \u043A\u0443\u0445\u043D\u0435 \u044F \u0437\u0430\u0442\u043E\u0447\u0438\u043B
    \u0441\u0443\u0445\u043E\u0439 \u043A\u043E\u0440\u043C, \u043B\u044E\u0431\u0435\u0437\u043D\u043E
    \u043E\u0441\u0442\u0430\u0432\u043B\u0435\u043D\u043D\u044B\u0439 \u043A\u0430\u043A\u0438\u043C-\u0442\u043E
    \u0447\u0435\u043B\u043E\u0432\u0435\u043A\u043E\u043C. \u0418 \u043D\u0430 \u0442\u043E\u043C
    \u0441\u043F\u0430\u0441\u0438\u0431\u043E. \u0420\u0430\u0434\u043E \u0435\u0449\u0435
    \u043D\u0430\u043B\u043E\u0436\u0435\u043D\u0430 \u043A\u0430\u043A\u0430\u044F-\u0442\u043E
    \u043A\u043E\u0440\u0438\u0447\u043D\u0435\u0432\u0430\u044F \u043C\u0430\u0441\u0441\u0430.
    \u041F\u0430\u0445\u043D\u0435\u0442 \u0440\u044B\u0431\u043E\u0439. \u0427\u0442\u043E
    \u044D\u0442\u043E? \u041F\u0430\u0448\u0442\u0435\u0442?\n\n1. \u0412\u0435\u0440\u043D\u0443\u0442\u044C\u0441\u044F
    \u0432 \u043A\u043E\u0440\u0438\u0434\u043E\u0440\n2. \u0417\u0430\u0442\u043E\u0447\u0438\u0442\u044C
    \u043F\u0430\u0448\u0442\u0435\u0442"
>>>>>>> 750b46a15ed842fa08d9cc4ae24ae90fd7559d03
  nextStates:
  - {fileID: 11400000, guid: eca4fcdcadacc2c4789ce2e44b44fac6, type: 2}
  - {fileID: 11400000, guid: bc11642645197af4fba500e9842fe6f9, type: 2}
