%YAML 1.1
%TAG !u! tag:unity3d.com,2011:
--- !u!114 &11400000
MonoBehaviour:
  m_ObjectHideFlags: 0
  m_CorrespondingSourceObject: {fileID: 0}
  m_PrefabInstance: {fileID: 0}
  m_PrefabAsset: {fileID: 0}
  m_GameObject: {fileID: 0}
  m_Enabled: 1
  m_EditorHideFlags: 0
  m_Script: {fileID: 11500000, guid: e022274d3d31e0d44a8191cf2c4e28a3, type: 3}
  m_Name: StartGameState
  m_EditorClassIdentifier: 
  LocationName: "\u0422\u0435\u043C\u043D\u044B\u0439 \u043C\u0440\u0430\u0447\u043D\u044B\u0439
    \u043A\u043E\u0440\u0438\u0434\u043E\u0440"
  storyText: "\u0412 \u043A\u043E\u0440\u0438\u0434\u043E\u0440\u0435 \u043D\u0435\u043F\u0440\u043E\u0433\u043B\u044F\u0434\u043D\u0430\u044F
    \u0442\u044C\u043C\u0430. \u0425\u043E\u0440\u043E\u0448\u043E, \u0447\u0442\u043E
    \u044F \u043A\u043E\u0442 \u0438 \u043C\u043D\u0435 \u0431\u0435\u0437 \u0440\u0430\u0437\u043D\u0438\u0446\u044B...\n\n1.
    \u041D\u0430 \u043A\u0443\u0445\u043D\u044E\n2. \u0412 \u0432\u0430\u043D\u043D\u0443\u044E"
  nextStates:
  - {fileID: 11400000, guid: 1bf6bd9353acc3141af4c687d933242b, type: 2}
  - {fileID: 11400000, guid: 6a52879d49ecdb246883ceec8d411bcc, type: 2}
